…
```
- เลือก values Region
- ใช้คำสั่ง distinct เพื่อที่จะไม่เอาค่าที่ซ้ำ
- list ข้อมูลออกมา
```
### 5 Find product name that have orderdate in 2018
```
prod2018 <- superstore %>% mutate(year = year(dmy(superstore$Order.Date))) 
%>% filter(year==2018) %>% select(year,Category,Product.Name)
as_tibble(prod2018)
```
Result:
```
> as_tibble(prod2018)
# A tibble: 3,258 x 3
    year Category        Product.Name                                                              
   <dbl> <chr>           <chr>                                                                     
 1  2018 Office Supplies "Xerox 1967"                                                              
 2  2018 Furniture       "Global Deluxe Stacking Chair, Gray"                                      
 3  2018 Office Supplies "Easy-staple paper"                                                       
 4  2018 Technology      "Panasonic Kx-TS550"                                                      
 5  2018 Office Supplies "Advantus 10-Drawer Portable Organizer, Chrome Metal Frame, Smoke Drawers"
 6  2018 Office Supplies "Telephone Message Books with Fax/Mobile Section, 5 1/2\" x 3 3/16\""     
 7  2018 Office Supplies "Economy Binders"                                                         
 8  2018 Furniture       "6\" Cubicle Wall Clock, Black"                                           
 9  2018 Office Supplies "SimpliFile Personal File, Black Granite, 15w x 6-15/16d x 11-1/4h"       
10  2018 Office Supplies "Safco Industrial Wire Shelving"                                          
# ... with 3,248 more rows
```
…
