…
## Part 2: Learning function from Tidyverse (Transform data with dplyr and finding insight the data)

- Function `select()` from package [dplyr](https://dplyr.tidyverse.org/articles/dplyr.html#select-columns-with-select)). It using for select columns that we want and we also use `as_tibble()` because our dataset is large and it use for show the result in few rows.

```
superstore <- as_tibble(superstore)
superstore %>% select(Product.ID,Sales,Country)
```
Result:

```
> superstore <- as_tibble(superstore)
> superstore %>% select(Product.ID,Sales,Country)
# A tibble: 9,800 x 3
   Product.ID       Sales Country      
   <chr>            <dbl> <chr>        
 1 FUR-BO-10001798 262.   United States
 2 FUR-CH-10000454 732.   United States
 3 OFF-LA-10000240  14.6  United States
 4 FUR-TA-10000577 958.   United States
 5 OFF-ST-10000760  22.4  United States
 6 FUR-FU-10001487  48.9  United States
 7 OFF-AR-10002833   7.28 United States
 8 TEC-PH-10002275 907.   United States
 9 OFF-BI-10003910  18.5  United States
10 OFF-AP-10002892 115.   United States
# ... with 9,790 more rows
```
…
