…
  <chr>                 <dbl>
1 Boxed Set - Hardcover 220. 
2 ebook                  51.4
3 Hardcover              70.1
4 Kindle Edition         32.4
5 Paperback              45.8
6 Unknown Binding        37.2
```
### 4. Books that have not been reviewed
```
prog_book %>%  filter(Reviews == 0) %>% group_by(Book_title) %>% select(Book_title , Reviews)
```
#### Resuit :
```
# A tibble: 22 × 2
# Groups:   Book_title [22]
   Book_title                                                                          Reviews
   <chr>                                                                               <chr>  
 1 Responsive Web Design Overview For Beginners                                        0      
 2 ZX Spectrum Games Code Club: Twenty fun games to code and learn                     0      
 3 Game Programming Golden Rules                                                       0      
 4 Beginners Guide On PHP Programming: Quick And Easy Guide To Learn PHP With My-SQL   0      
 5 Python Programming Books Set: Python Programming for Beginners & Complete Guide fo… 0      
 6 Your First App: Node.js                                                             0      
 7 Python Programming For Beginners: Quick And Easy Guide For Python Programmers       0      
 8 Building an FPS Game with Unity                                                     0      
 9 Advanced Game Programming: A Gamedev.Net Collection                                 0      
10 Basic Proof Theory                                                                  0      
# … with 12 more rows
```
…
